{
  "images" : [
    {
      "idiom" : "universal",
      "scale" : "1x"
    },
    {
      "idiom" : "universal",
      "filename" : "MV5BYjE5NzZlODAtNTU2ZC00OTE1LWI5OGMtZDE5MjMwNjlhZTEyXkEyXkFqcGdeQXVyMjI3NDAyNg@@._V1_UY209_CR0,0,140,209_AL_-2.jpg",
      "scale" : "2x"
    },
    {
      "idiom" : "universal",
      "scale" : "3x"
    }
  ],
  "info" : {
    "version" : 1,
    "author" : "xcode"
  }
}