{
  "images" : [
    {
      "idiom" : "universal",
      "scale" : "1x"
    },
    {
      "idiom" : "universal",
      "filename" : "MV5BMjgyOWRhMDctZTZlNC00M2I1LWI0NDQtYzlmODdmYjY2MThiXkEyXkFqcGdeQXVyMzY0MTE3NzU@._V1_UY209_CR0,0,140,209_AL_.jpg",
      "scale" : "2x"
    },
    {
      "idiom" : "universal",
      "scale" : "3x"
    }
  ],
  "info" : {
    "version" : 1,
    "author" : "xcode"
  }
}