{
  "images" : [
    {
      "idiom" : "universal",
      "scale" : "1x"
    },
    {
      "idiom" : "universal",
      "filename" : "MV5BMjI3NTM1NzMyNF5BMl5BanBnXkFtZTgwOTE4NTgzNTM@._V1_UY209_CR5,0,140,209_AL_-2.jpg",
      "scale" : "2x"
    },
    {
      "idiom" : "universal",
      "scale" : "3x"
    }
  ],
  "info" : {
    "version" : 1,
    "author" : "xcode"
  }
}